{
    "swagger": "2.0",
    "info": {
        "title": "Antwoorden CMS",
        "description": "API to retrieve chatbot content for one or more municipalities",
        "version": "v1"
    },
    "basePath": "/",
    "consumes": [
        "application/json"
    ],
    "produces": [
        "application/json"
    ],
    "securityDefinitions": {
        "Basic": {
            "type": "basic"
        }
    },
    "security": [
        {
            "Basic": []
        }
    ],
    "paths": {
        "/api/{gemeente}/utters/{utter_name}/": {
            "get": {
                "operationId": "api_utters_read",
                "description": "Haal een utter op",
                "parameters": [
                    {
                        "name": "channel",
                        "in": "query",
                        "description": "Naam van het kanaal",
                        "type": "string"
                    },
                    {
                        "name": "utter_name",
                        "in": "path",
                        "description": "Naam van de utter",
                        "type": "string",
                        "required": true
                    }
                ],
                "responses": {
                    "200": {
                        "description": "",
                        "schema": {
                            "$ref": "#/definitions/UtterResponse"
                        }
                    }
                },
                "tags": [
                    "api"
                ]
            },
            "parameters": [
                {
                    "name": "gemeente",
                    "in": "path",
                    "required": true,
                    "type": "string"
                },
                {
                    "name": "utter_name",
                    "in": "path",
                    "required": true,
                    "type": "string"
                }
            ]
        }
    },
    "definitions": {
        "UtterResponse": {
            "required": [
                "text",
                "buttons",
                "elements",
                "attachments"
            ],
            "type": "object",
            "properties": {
                "text": {
                    "title": "Text",
                    "description": "The text to return in the response",
                    "type": "string",
                    "minLength": 1
                },
                "buttons": {
                    "description": "Buttons that will be shown in the response",
                    "type": "array",
                    "items": {
                        "type": "string"
                    }
                },
                "image": {
                    "title": "Image",
                    "description": "Optional image to be returned in the response",
                    "type": "string",
                    "minLength": 1
                },
                "elements": {
                    "description": "CURRENTLY NOT USED",
                    "type": "array",
                    "items": {
                        "type": "string"
                    }
                },
                "attachments": {
                    "description": "CURRENTLY NOT USED",
                    "type": "array",
                    "items": {
                        "type": "string"
                    }
                }
            }
        }
    }
}
